{
    "name": "MineFun.Core",
    "references": [
        "GUID:9192d4a2523ff3d418f96517cf32e8d2"
    ],
    "includePlatforms": [],
    "excludePlatforms": [],
    "allowUnsafeCode": false,
    "overrideReferences": false,
    "precompiledReferences": [],
    "autoReferenced": true,
    "defineConstraints": [],
    "versionDefines": [],
    "noEngineReferences": false
}