%YAML 1.1
%TAG !u! tag:unity3d.com,2011:
--- !u!1045 &1
EditorBuildSettings:
  m_ObjectHideFlags: 0
  serializedVersion: 2
  m_Scenes:
  - enabled: 1
    path: Assets/Scenes/Main.unity
    guid: 596dbc3ba9c25214ea60d355da86040c
  - enabled: 1
    path: Assets/Scenes/Game.unity
    guid: 9a9c7bee9d5f4804b8bb70c3f840d8a5
  - enabled: 1
    path: Assets/Scenes/Level.unity
    guid: 736700f1f47bd5b4ea523f9fffa21b56
  m_configObjects: {}
