{
    "name": "MineFun.Editor",
    "references": [
        "GUID:9192d4a2523ff3d418f96517cf32e8d2",
        "GUID:4e59ee758f6d0bf4fa040c9380a969f1"
    ],
    "includePlatforms": [
        "Editor"
    ],
    "excludePlatforms": [],
    "allowUnsafeCode": false,
    "overrideReferences": false,
    "precompiledReferences": [],
    "autoReferenced": true,
    "defineConstraints": [],
    "versionDefines": [],
    "noEngineReferences": false
}